<?xml version="1.0" encoding="UTF-8" standalone="no"?>
<!-- Created with Inkscape (http://www.inkscape.org/) -->

<svg
   xmlns:dc="http://purl.org/dc/elements/1.1/"
   xmlns:cc="http://creativecommons.org/ns#"
   xmlns:rdf="http://www.w3.org/1999/02/22-rdf-syntax-ns#"
   xmlns:svg="http://www.w3.org/2000/svg"
   xmlns="http://www.w3.org/2000/svg"
   xmlns:sodipodi="http://sodipodi.sourceforge.net/DTD/sodipodi-0.dtd"
   xmlns:inkscape="http://www.inkscape.org/namespaces/inkscape"
   width="153.59769mm"
   height="28.858303mm"
   viewBox="0 0 544.24377 102.25383"
   id="svg3885"
   version="1.1"
   inkscape:version="0.91 r13725"
   sodipodi:docname="Teleperformance.svg">
  <defs
     id="defs3887">
    <clipPath
       clipPathUnits="userSpaceOnUse"
       id="clipPath3406">
      <path
         d="m 0,595.275 841.89,0 L 841.89,0 0,0 0,595.275 Z"
         id="path3408"
         inkscape:connector-curvature="0" />
    </clipPath>
    <radialGradient
       fx="0"
       fy="0"
       cx="0"
       cy="0"
       r="1"
       gradientUnits="userSpaceOnUse"
       gradientTransform="matrix(10.375732,0,0,-10.375732,234.5376,329.48535)"
       spreadMethod="pad"
       id="radialGradient3394">
      <stop
         style="stop-opacity:1;stop-color:#bae5b6"
         offset="0"
         id="stop3396" />
      <stop
         style="stop-opacity:1;stop-color:#1aae48"
         offset="1"
         id="stop3398" />
    </radialGradient>
    <clipPath
       clipPathUnits="userSpaceOnUse"
       id="clipPath3374">
      <path
         d="m 0,595.275 841.89,0 L 841.89,0 0,0 0,595.275 Z"
         id="path3376"
         inkscape:connector-curvature="0" />
    </clipPath>
    <radialGradient
       fx="0"
       fy="0"
       cx="0"
       cy="0"
       r="1"
       gradientUnits="userSpaceOnUse"
       gradientTransform="matrix(32.954376,0,0,-32.954361,228.74561,315.26416)"
       spreadMethod="pad"
       id="radialGradient3358">
      <stop
         style="stop-opacity:1;stop-color:#1aae48"
         offset="0"
         id="stop3360" />
      <stop
         style="stop-opacity:1;stop-color:#1aae48"
         offset="0.63927204"
         id="stop3362" />
      <stop
         style="stop-opacity:1;stop-color:#1aae48"
         offset="0.800003"
         id="stop3364" />
      <stop
         style="stop-opacity:1;stop-color:#bae5b6"
         offset="1"
         id="stop3366" />
    </radialGradient>
  </defs>
  <sodipodi:namedview
     id="base"
     pagecolor="#ffffff"
     bordercolor="#666666"
     borderopacity="1.0"
     inkscape:pageopacity="0.0"
     inkscape:pageshadow="2"
     inkscape:zoom="0.7"
     inkscape:cx="421.82653"
     inkscape:cy="-325.43821"
     inkscape:document-units="px"
     inkscape:current-layer="layer1"
     showgrid="false"
     inkscape:window-width="1920"
     inkscape:window-height="1028"
     inkscape:window-x="-8"
     inkscape:window-y="-8"
     inkscape:window-maximized="1"
     fit-margin-top="0"
     fit-margin-left="0"
     fit-margin-right="0"
     fit-margin-bottom="0" />
  <metadata
     id="metadata3890">
    <rdf:RDF>
      <cc:Work
         rdf:about="">
        <dc:format>image/svg+xml</dc:format>
        <dc:type
           rdf:resource="http://purl.org/dc/dcmitype/StillImage" />
        <dc:title></dc:title>
      </cc:Work>
    </rdf:RDF>
  </metadata>
  <g
     inkscape:label="Capa 1"
     inkscape:groupmode="layer"
     id="layer1">
    <g
       id="g4103"
       transform="translate(-89.032114,-56.949546)">
      <g
         transform="matrix(1.3065311,0,0,-1.3065311,-164.72589,511.98271)"
         id="g3346">
        <g
           id="g3348">
          <g
             id="g3354">
            <g
               id="g3356">
              <path
                 inkscape:connector-curvature="0"
                 id="path3368"
                 style="fill:url(#radialGradient3358);stroke:none"
                 d="m 196.121,314.915 c 0,-18.204 14.757,-32.961 32.962,-32.961 l 0,0 c 18.204,0 32.961,14.757 32.961,32.961 l 0,0 c 0,18.203 -14.757,32.961 -32.961,32.961 l 0,0 c -18.205,0 -32.962,-14.758 -32.962,-32.961" />
            </g>
          </g>
        </g>
      </g>
      <g
         transform="matrix(1.3065311,0,0,-1.3065311,-164.72589,511.98271)"
         id="g3370">
        <g
           clip-path="url(#clipPath3374)"
           id="g3372">
          <g
             transform="translate(519.127,308.1123)"
             id="g3378">
            <path
               inkscape:connector-curvature="0"
               id="path3380"
               style="fill:#123a71;fill-opacity:1;fill-rule:nonzero;stroke:none"
               d="m 0,0 c 0,-0.818 0.775,-1.773 2.057,-1.773 2.592,0 4.142,1.805 4.582,4.193 C 6.133,2.521 5.392,2.521 5.021,2.521 2.124,2.623 0,1.566 0,0 m -145.826,-1.16 c 2.753,0 4.404,2.762 4.404,5.521 0,2.184 -0.94,3.649 -2.784,3.649 -2.753,0 -4.404,-3.205 -4.404,-5.557 0,-1.807 0.841,-3.613 2.784,-3.613 m 222.741,2.795 -12.433,0 c 0.068,-1.908 1.011,-3.408 4.717,-3.408 1.617,0 3.808,0.41 5.492,1.228 l -0.775,-4.33 c -2.121,-0.646 -4.379,-0.988 -6.131,-0.988 -5.864,0 -9.031,3.646 -9.031,8.111 0,4.125 2.695,10.465 10.514,10.465 4.615,0 8.086,-2.352 8.086,-7.736 0,-0.716 -0.202,-2.286 -0.439,-3.342 M 55.62,7.26 c -1.258,0.578 -2.584,0.955 -3.945,0.955 -3.165,0 -5.412,-2.047 -5.412,-5.727 0,-2.115 1.633,-3.851 4.22,-3.851 1.532,0 2.621,0.238 3.948,0.783 l -0.885,-4.602 c -1.225,-0.41 -2.858,-0.681 -5.241,-0.681 -5.172,0 -8.371,3.646 -8.371,8.111 0,5.828 4.629,10.465 11.434,10.465 1.497,0 3.778,-0.442 5.581,-1.192 L 55.62,7.26 Z m -19.959,-4.432 -1.617,-8.281 -6.267,0 1.685,8.314 c 0.168,0.889 0.403,1.774 0.403,2.694 0,1.056 -0.675,2.113 -2.357,2.045 -2.562,0 -4.076,-2.25 -4.515,-4.874 l -1.72,-8.179 -6.065,0 2.73,13.121 c 0.303,1.534 0.572,3.035 0.742,4.636 l 5.626,0 -0.47,-2.898 0.066,0 c 1.752,1.977 3.572,3.307 6.773,3.307 3.537,0 5.458,-2.659 5.458,-6.137 0,-1.191 -0.102,-1.873 -0.472,-3.748 m -24.879,-8.281 -4.954,0 0.272,2.486 -0.067,0.069 0,-0.069 C 4.752,-5.012 2.494,-5.863 0.136,-5.863 c -3.775,0 -5.864,1.703 -5.864,5.147 0,4.362 4.314,6.51 9.671,6.51 1.212,0 2.427,-0.103 3.269,-0.171 0.065,0.238 0.065,0.477 0.065,0.715 0,1.262 -1.244,2.285 -3.233,2.285 -2.19,0 -3.673,-0.34 -5.695,-1.396 l 0.608,4.462 c 1.785,0.615 3.705,1.024 6.435,1.024 4.178,0 7.614,-1.67 7.614,-6.033 0,-2.795 -1.549,-6.784 -2.224,-12.133 m -19.596,8.894 -1.821,-8.894 -6.062,0 1.75,8.623 c 0.203,0.92 0.338,1.873 0.338,2.589 0,1.159 -0.539,1.841 -1.954,1.841 -2.529,0 -3.201,-2.965 -3.605,-4.874 l -1.72,-8.179 -6.064,0 1.752,8.623 c 0.202,0.92 0.337,1.873 0.337,2.589 0,1.159 -0.538,1.841 -1.954,1.841 -2.527,0 -3.203,-2.965 -3.605,-4.874 l -1.719,-8.179 -6.066,0 2.73,13.121 c 0.303,1.534 0.573,3.035 0.741,4.636 l 5.392,0 -0.676,-3.24 0.069,0.036 c 1.482,2.25 3.74,3.613 6.2,3.613 2.055,0 4.144,-1.192 4.616,-3.613 1.483,2.25 3.74,3.613 6.267,3.613 2.695,0 5.458,-1.33 5.458,-5.283 0,-1.159 -0.134,-2.727 -0.404,-3.989 M -40.847,6.85 c -0.753,0.615 -1.602,0.75 -2.715,0.75 -2.485,0 -3.957,-2.25 -4.381,-4.874 l -1.668,-8.179 -6.621,0 2.65,13.121 c 0.293,1.534 0.555,3.035 0.719,4.636 l 6.195,0 -0.654,-3.648 0.064,0 c 0.95,2.08 2.847,4.057 5.268,4.057 0.784,0 1.701,-0.104 2.484,-0.442 L -40.847,6.85 Z M -69.453,-5.863 c -6.312,0 -8.864,3.646 -8.864,8.111 0,6.238 4.317,10.465 10.988,10.465 5.79,0 8.864,-3.477 8.864,-7.942 0,-7.396 -4.612,-10.634 -10.988,-10.634 M -79.68,15.78 c -0.582,0.24 -1.197,0.445 -1.843,0.445 -1.394,0 -2.267,-0.887 -2.689,-2.866 l -0.226,-1.055 4.337,0 -0.906,-4.294 -4.272,0 -2.657,-13.463 -6.553,0 3.95,20.007 c 0.743,3.68 3.141,5.966 6.894,5.966 1.458,0 3.836,-0.172 5.067,-0.547 L -79.68,15.78 Z M -96.247,6.85 c -0.746,0.615 -1.587,0.75 -2.689,0.75 -2.46,0 -3.916,-2.25 -4.335,-4.874 l -1.654,-8.179 -6.554,0 2.623,13.121 c 0.292,1.534 0.549,3.035 0.711,4.636 l 6.134,0 -0.647,-3.648 0.063,0 c 0.941,2.08 2.818,4.057 5.214,4.057 0.777,0 1.684,-0.104 2.461,-0.442 L -96.247,6.85 Z m -17.612,-5.215 -12.433,0 c 0.068,-1.908 1.011,-3.408 4.718,-3.408 1.616,0 3.806,0.41 5.491,1.228 l -0.773,-4.33 c -2.123,-0.646 -4.381,-0.988 -6.133,-0.988 -5.863,0 -9.032,3.646 -9.032,8.111 0,4.125 2.696,10.465 10.514,10.465 4.615,0 8.087,-2.352 8.087,-7.736 0,-0.716 -0.202,-2.286 -0.439,-3.342 m -45.48,0 -12.433,0 c 0.066,-1.908 1.012,-3.408 4.718,-3.408 1.616,0 3.807,0.41 5.491,1.228 l -0.775,-4.33 c -2.123,-0.646 -4.381,-0.988 -6.133,-0.988 -5.862,0 -9.029,3.646 -9.029,8.111 0,4.125 2.695,10.465 10.512,10.465 4.616,0 8.087,-2.352 8.087,-7.736 0,-0.716 -0.203,-2.286 -0.438,-3.342 m -23.942,-7.088 -6.619,0 5.051,25.562 6.62,0 -5.052,-25.562 z m -9.232,7.088 -12.433,0 c 0.068,-1.908 1.011,-3.408 4.717,-3.408 1.618,0 3.808,0.41 5.493,1.228 l -0.776,-4.33 c -2.123,-0.646 -4.38,-0.988 -6.132,-0.988 -5.862,0 -9.029,3.646 -9.029,8.111 0,4.125 2.695,10.465 10.512,10.465 4.616,0 8.086,-2.352 8.086,-7.736 0,-0.716 -0.202,-2.286 -0.438,-3.342 m -25.834,-7.088 -8.031,0 4.373,21.856 -7.427,0 1.32,6.597 22.884,0 -1.32,-6.597 -7.426,0 -4.373,-21.856 z m -25.275,34.969 0,-43.133 84.816,0 5.033,23.262 c 0.227,1.058 0.292,1.943 0.356,2.659 l 6.069,0 -0.453,-2.829 0.066,0 c 1.78,2.285 3.95,3.238 6.053,3.238 4.144,0 6.281,-3.34 6.281,-7.328 0,-5.83 -2.784,-11.248 -8.871,-11.248 -2.558,0 -4.208,1.158 -5.44,3.375 l -2.475,-11.129 243.839,0 0,43.133 -335.274,0 z M -67.623,8.418 c -2.844,0 -4.61,-3.203 -4.61,-6.033 0,-2.385 1.21,-3.989 3.204,-3.953 2.748,0 4.481,2.384 4.481,6.406 0,1.842 -0.785,3.58 -3.075,3.58 m -132.471,0.205 c -2.628,0 -4.043,-1.807 -4.481,-3.512 l 7.446,0 c 0,1.91 -0.741,3.512 -2.965,3.512 m 78.654,0 c -2.627,0 -4.043,-1.807 -4.481,-3.512 l 7.445,0 c 0,1.91 -0.739,3.512 -2.964,3.512 m 190.774,0 c -2.627,0 -4.042,-1.807 -4.48,-3.512 l 7.445,0 c 0,1.91 -0.741,3.512 -2.965,3.512 m -236.254,0 c -2.628,0 -4.045,-1.807 -4.481,-3.512 l 7.446,0 c 0,1.91 -0.741,3.512 -2.965,3.512" />
          </g>
        </g>
      </g>
      <g
         transform="matrix(1.3065311,0,0,-1.3065311,-164.72589,511.98271)"
         id="g3382">
        <g
           id="g3384">
          <g
             id="g3390">
            <g
               id="g3392">
              <path
                 inkscape:connector-curvature="0"
                 id="path3400"
                 style="fill:url(#radialGradient3394);stroke:none"
                 d="m 224.503,329.132 c 0,-5.731 4.646,-10.376 10.377,-10.376 l 0,0 c 5.731,0 10.376,4.645 10.376,10.376 l 0,0 c 0,5.73 -4.645,10.377 -10.376,10.377 l 0,0 c -5.731,0 -10.377,-4.647 -10.377,-10.377" />
            </g>
          </g>
        </g>
      </g>
      <g
         transform="matrix(1.3065311,0,0,-1.3065311,-164.72589,511.98271)"
         id="g3402">
        <g
           clip-path="url(#clipPath3406)"
           id="g3404">
          <g
             transform="translate(259.2578,304.2158)"
             id="g3410">
            <path
               inkscape:connector-curvature="0"
               id="path3412"
               style="fill:#ffffff;fill-opacity:1;fill-rule:evenodd;stroke:none"
               d="m 0,0 c -1.834,-2.943 -4.611,-6.049 -8.129,-8.842 0.092,0.918 0.144,1.85 0.144,2.799 -0.005,2.955 -0.452,6.047 -1.256,9.176 3.83,2.825 6.842,5.9 8.783,8.928 C 0.087,9.618 0.374,7.151 0.375,4.72 0.375,3.123 0.241,1.547 0,0 m -8.889,-9.438 c -0.174,-0.132 -0.359,-0.257 -0.536,-0.388 -0.348,0.74 -0.775,1.359 -1.11,1.767 -2.703,3.293 -0.658,5.774 -0.111,7.057 0.56,1.308 0.513,2.143 -0.514,2.795 0.452,0.302 0.9,0.605 1.332,0.916 0.752,-2.992 1.163,-5.94 1.159,-8.752 0,-1.158 -0.078,-2.29 -0.22,-3.395 m -0.195,-1.238 c -0.022,0.069 -0.048,0.134 -0.073,0.201 0.044,0.032 0.09,0.063 0.134,0.094 -0.018,-0.099 -0.042,-0.195 -0.061,-0.295 m -3.761,18.727 c -0.409,0.195 -0.778,0.269 -2.045,0.823 -1.258,0.55 -1.968,0.569 -1.471,1.817 0.806,2.027 1.228,2.875 1.687,4.246 2.021,-3.77 3.623,-7.671 4.657,-11.521 -0.59,-0.428 -1.206,-0.85 -1.834,-1.266 -0.899,0.381 -1.783,0.653 -1.783,0.653 0,0 0.583,1.105 1.322,3.316 0.458,1.375 -0.123,1.736 -0.533,1.932 M -23.69,19.996 c -1.605,0.623 -2.575,1.111 -3.313,3.496 -0.017,0.055 -0.036,0.105 -0.052,0.158 1.662,0.848 3.213,1.743 4.614,2.672 2.193,-2.57 4.199,-5.361 5.976,-8.269 -0.17,0.027 -0.331,0.052 -0.473,0.079 -1.706,0.318 -4.959,1.171 -6.752,1.864 m -8.721,14.275 c 0.314,0.194 0.62,0.389 0.912,0.588 3.036,-2.234 5.942,-4.964 8.607,-8.018 -1.329,-0.882 -2.8,-1.734 -4.377,-2.538 -1.444,4.361 -3.254,7.59 -5.142,9.968 m -3.074,3.167 c 1.141,-0.651 2.275,-1.356 3.39,-2.149 -0.244,-0.164 -0.497,-0.324 -0.755,-0.483 -0.878,1.042 -1.765,1.911 -2.635,2.632 m -1.184,2.66 c 2.958,0 5.753,-0.289 8.38,-0.824 -0.458,-1.118 -1.57,-2.387 -3.205,-3.579 -2.503,1.798 -5.091,3.266 -7.706,4.325 0.855,0.046 1.702,0.078 2.531,0.078 m -1.406,2.379 c 1.265,0.299 2.487,0.497 3.613,0.574 -1.867,-0.546 -3.549,-1.184 -4.861,-1.807 0.369,0.414 0.788,0.838 1.248,1.233 m -2.734,-2.023 c -0.756,0.251 -1.39,0.394 -1.852,0.472 0.634,0.281 1.286,0.553 1.974,0.795 0.415,0.146 0.825,0.267 1.234,0.388 -0.558,-0.58 -1.024,-1.16 -1.356,-1.655 m 12.66,0.569 c 0.072,-0.211 0.111,-0.434 0.111,-0.668 0.003,-0.133 -0.033,-0.279 -0.057,-0.421 -2.689,0.55 -5.549,0.847 -8.574,0.847 -0.708,0 -1.428,-0.021 -2.154,-0.054 1.8,0.83 4.306,1.692 6.982,2.293 1.998,-0.235 3.353,-0.958 3.692,-1.997 m 12.585,-6.961 c -1.139,-2.193 -3.492,-4.59 -6.749,-6.837 -2.661,3.052 -5.565,5.788 -8.608,8.046 1.653,1.226 2.83,2.547 3.316,3.847 4.538,-1.011 8.561,-2.763 12.041,-5.056 m 0.563,-0.38 c 3.439,-2.366 6.328,-5.259 8.64,-8.477 -1.54,-2.867 -4.313,-5.932 -8.026,-8.777 -0.044,0.817 -0.551,1.201 -1.149,1.408 -1.861,3.123 -3.983,6.121 -6.324,8.869 3.256,2.242 5.648,4.652 6.859,6.977 m 9.078,-9.09 C -3.46,21.008 -1.702,17.051 -0.68,13.002 -2.509,9.957 -5.519,6.779 -9.432,3.85 c -1.086,3.957 -2.744,7.957 -4.839,11.804 3.799,2.861 6.679,5.953 8.348,8.938 M 1.061,4.72 C 1.06,7.434 0.72,10.188 0.056,12.904 c 1.03,1.786 1.67,3.543 1.882,5.211 -0.003,0.016 -0.007,0.031 -0.011,0.047 -0.124,0.535 -0.26,1.065 -0.41,1.589 -0.008,0.029 -0.017,0.059 -0.025,0.088 -0.15,0.523 -0.314,1.04 -0.489,1.553 -0.005,0.013 -0.009,0.026 -0.014,0.04 0.227,-0.693 0.347,-1.423 0.347,-2.19 0.012,-1.666 -0.524,-3.494 -1.533,-5.388 -1.094,3.998 -2.89,7.888 -5.366,11.417 0.82,1.641 1.271,3.243 1.278,4.741 0,0.413 -0.04,0.818 -0.11,1.213 -0.003,0.004 -0.006,0.008 -0.009,0.012 -0.342,0.43 -0.695,0.849 -1.057,1.261 -0.009,0.009 -0.018,0.02 -0.027,0.029 l 0.191,-0.519 c 0.219,-0.622 0.328,-1.289 0.328,-1.996 0.007,-1.271 -0.364,-2.663 -1.051,-4.116 -0.835,1.139 -1.734,2.243 -2.711,3.29 -1.76,1.888 -3.758,3.605 -5.968,5.116 0.373,0.866 0.583,1.717 0.593,2.538 0,0.529 -0.083,1.045 -0.256,1.535 -0.201,0.574 -0.479,1.154 -0.855,1.692 -0.005,0.003 -0.01,0.006 -0.015,0.008 -0.654,0.334 -1.318,0.652 -1.997,0.942 -0.008,0.004 -0.017,0.008 -0.025,0.012 1.196,-0.681 1.847,-1.75 2.246,-2.882 0.146,-0.413 0.219,-0.85 0.219,-1.307 0.009,-0.676 -0.166,-1.401 -0.481,-2.152 -3.52,2.305 -7.583,4.068 -12.151,5.089 0.037,0.194 0.064,0.387 0.067,0.578 0,0.309 -0.051,0.608 -0.15,0.893 -0.381,1.035 -1.321,1.717 -2.603,2.115 0.479,0.083 1.306,0.172 1.859,0.237 -0.638,0.037 -1.279,0.06 -1.927,0.06 -18.204,0 -32.962,-14.758 -32.962,-32.961 0,-18.204 14.758,-32.961 32.962,-32.961 7.752,0 14.873,2.683 20.501,7.161 0.031,0.079 0.056,0.156 0.086,0.232 0.56,0.769 0.78,1.586 0.794,2.385 0.233,0.873 0.416,1.767 0.544,2.683 3.292,2.529 5.983,5.328 7.929,8.082 -0.272,-1.244 -0.636,-2.458 -1.071,-3.64 0.003,0.005 0.006,0.009 0.008,0.014 0.666,1.192 1.257,2.428 1.774,3.705 0.003,0.01 0.006,0.019 0.01,0.028 0.095,0.455 0.182,0.913 0.256,1.375 C 0.887,0.139 1.098,0.513 1.3,0.885 1.451,1.368 1.588,1.857 1.717,2.351 1.793,2.647 1.861,2.947 1.93,3.247 1.969,3.419 2.012,3.59 2.049,3.763 2.136,4.173 2.213,4.585 2.285,5 2.295,5.058 2.306,5.115 2.316,5.173 2.391,5.621 2.457,6.073 2.514,6.526 2.516,6.538 2.517,6.549 2.518,6.56 2.392,5.082 1.827,3.379 0.892,1.578 0.995,2.617 1.061,3.664 1.061,4.72" />
          </g>
          <g
             transform="translate(259.2578,304.2158)"
             id="g3414">
            <path
               inkscape:connector-curvature="0"
               id="path3416"
               style="fill:none;stroke:#ffffff;stroke-width:0.80000001;stroke-linecap:round;stroke-linejoin:round;stroke-miterlimit:4;stroke-dasharray:none;stroke-opacity:1"
               d="m 0,0 c -1.834,-2.943 -4.611,-6.049 -8.129,-8.842 0.092,0.918 0.144,1.85 0.144,2.799 -0.005,2.955 -0.452,6.047 -1.256,9.176 3.83,2.825 6.842,5.9 8.783,8.928 C 0.087,9.618 0.374,7.151 0.375,4.72 0.375,3.123 0.241,1.547 0,0 Z m -8.889,-9.438 c -0.174,-0.132 -0.359,-0.257 -0.536,-0.388 -0.348,0.74 -0.775,1.359 -1.11,1.767 -2.703,3.293 -0.658,5.774 -0.111,7.057 0.56,1.308 0.513,2.143 -0.514,2.795 0.452,0.302 0.9,0.605 1.332,0.916 0.752,-2.992 1.163,-5.94 1.159,-8.752 0,-1.158 -0.078,-2.29 -0.22,-3.395 z m -0.195,-1.238 c -0.022,0.069 -0.048,0.134 -0.073,0.201 0.044,0.032 0.09,0.063 0.134,0.094 -0.018,-0.099 -0.042,-0.195 -0.061,-0.295 z m -3.761,18.727 c -0.409,0.195 -0.778,0.269 -2.045,0.823 -1.258,0.55 -1.968,0.569 -1.471,1.817 0.806,2.027 1.228,2.875 1.687,4.246 2.021,-3.77 3.623,-7.671 4.657,-11.521 -0.59,-0.428 -1.206,-0.85 -1.834,-1.266 -0.899,0.381 -1.783,0.653 -1.783,0.653 0,0 0.583,1.105 1.322,3.316 0.458,1.375 -0.123,1.736 -0.533,1.932 z M -23.69,19.996 c -1.605,0.623 -2.575,1.111 -3.313,3.496 -0.017,0.055 -0.036,0.105 -0.052,0.158 1.662,0.848 3.213,1.743 4.614,2.672 2.193,-2.57 4.199,-5.361 5.976,-8.269 -0.17,0.027 -0.331,0.052 -0.473,0.079 -1.706,0.318 -4.959,1.171 -6.752,1.864 z m -8.721,14.275 c 0.314,0.194 0.62,0.389 0.912,0.588 3.036,-2.234 5.942,-4.964 8.607,-8.018 -1.329,-0.882 -2.8,-1.734 -4.377,-2.538 -1.444,4.361 -3.254,7.59 -5.142,9.968 z m -3.074,3.167 c 1.141,-0.651 2.275,-1.356 3.39,-2.149 -0.244,-0.164 -0.497,-0.324 -0.755,-0.483 -0.878,1.042 -1.765,1.911 -2.635,2.632 z m -1.184,2.66 c 2.958,0 5.753,-0.289 8.38,-0.824 -0.458,-1.118 -1.57,-2.387 -3.205,-3.579 -2.503,1.798 -5.091,3.266 -7.706,4.325 0.855,0.046 1.702,0.078 2.531,0.078 z m -1.406,2.379 c 1.265,0.299 2.487,0.497 3.613,0.574 -1.867,-0.546 -3.549,-1.184 -4.861,-1.807 0.369,0.414 0.788,0.838 1.248,1.233 z m -2.734,-2.023 c -0.756,0.251 -1.39,0.394 -1.852,0.472 0.634,0.281 1.286,0.553 1.974,0.795 0.415,0.146 0.825,0.267 1.234,0.388 -0.558,-0.58 -1.024,-1.16 -1.356,-1.655 z m 12.66,0.569 c 0.072,-0.211 0.111,-0.434 0.111,-0.668 0.003,-0.133 -0.033,-0.279 -0.057,-0.421 -2.689,0.55 -5.549,0.847 -8.574,0.847 -0.708,0 -1.428,-0.021 -2.154,-0.054 1.8,0.83 4.306,1.692 6.982,2.293 1.998,-0.235 3.353,-0.958 3.692,-1.997 z m 12.585,-6.961 c -1.139,-2.193 -3.492,-4.59 -6.749,-6.837 -2.661,3.052 -5.565,5.788 -8.608,8.046 1.653,1.226 2.83,2.547 3.316,3.847 4.538,-1.011 8.561,-2.763 12.041,-5.056 z m 0.563,-0.38 c 3.439,-2.366 6.328,-5.259 8.64,-8.477 -1.54,-2.867 -4.313,-5.932 -8.026,-8.777 -0.044,0.817 -0.551,1.201 -1.149,1.408 -1.861,3.123 -3.983,6.121 -6.324,8.869 3.256,2.242 5.648,4.652 6.859,6.977 z m 9.078,-9.09 C -3.46,21.008 -1.702,17.051 -0.68,13.002 -2.509,9.957 -5.519,6.779 -9.432,3.85 c -1.086,3.957 -2.744,7.957 -4.839,11.804 3.799,2.861 6.679,5.953 8.348,8.938 z M 1.061,4.72 C 1.06,7.434 0.72,10.188 0.056,12.904 c 1.03,1.786 1.67,3.543 1.882,5.211 -0.003,0.016 -0.007,0.031 -0.011,0.047 -0.124,0.535 -0.26,1.065 -0.41,1.589 -0.008,0.029 -0.017,0.059 -0.025,0.088 -0.15,0.523 -0.314,1.04 -0.489,1.553 -0.005,0.013 -0.009,0.026 -0.014,0.04 0.227,-0.693 0.347,-1.423 0.347,-2.19 0.012,-1.666 -0.524,-3.494 -1.533,-5.388 -1.094,3.998 -2.89,7.888 -5.366,11.417 0.82,1.641 1.271,3.243 1.278,4.741 0,0.413 -0.04,0.818 -0.11,1.213 -0.003,0.004 -0.006,0.008 -0.009,0.012 -0.342,0.43 -0.695,0.849 -1.057,1.261 -0.009,0.009 -0.018,0.02 -0.027,0.029 l 0.191,-0.519 c 0.219,-0.622 0.328,-1.289 0.328,-1.996 0.007,-1.271 -0.364,-2.663 -1.051,-4.116 -0.835,1.139 -1.734,2.243 -2.711,3.29 -1.76,1.888 -3.758,3.605 -5.968,5.116 0.373,0.866 0.583,1.717 0.593,2.538 0,0.529 -0.083,1.045 -0.256,1.535 -0.201,0.574 -0.479,1.154 -0.855,1.692 -0.005,0.003 -0.01,0.006 -0.015,0.008 -0.654,0.334 -1.318,0.652 -1.997,0.942 -0.008,0.004 -0.017,0.008 -0.025,0.012 1.196,-0.681 1.847,-1.75 2.246,-2.882 0.146,-0.413 0.219,-0.85 0.219,-1.307 0.009,-0.676 -0.166,-1.401 -0.481,-2.152 -3.52,2.305 -7.583,4.068 -12.151,5.089 0.037,0.194 0.064,0.387 0.067,0.578 0,0.309 -0.051,0.608 -0.15,0.893 -0.381,1.035 -1.321,1.717 -2.603,2.115 0.479,0.083 1.306,0.172 1.859,0.237 -0.638,0.037 -1.279,0.06 -1.927,0.06 -18.204,0 -32.962,-14.758 -32.962,-32.961 0,-18.204 14.758,-32.961 32.962,-32.961 7.752,0 14.873,2.683 20.501,7.161 0.031,0.079 0.056,0.156 0.086,0.232 0.56,0.769 0.78,1.586 0.794,2.385 0.233,0.873 0.416,1.767 0.544,2.683 3.292,2.529 5.983,5.328 7.929,8.082 -0.272,-1.244 -0.636,-2.458 -1.071,-3.64 0.003,0.005 0.006,0.009 0.008,0.014 0.666,1.192 1.257,2.428 1.774,3.705 0.003,0.01 0.006,0.019 0.01,0.028 0.095,0.455 0.182,0.913 0.256,1.375 C 0.887,0.139 1.098,0.513 1.3,0.885 1.451,1.368 1.588,1.857 1.717,2.351 1.793,2.647 1.861,2.947 1.93,3.247 1.969,3.419 2.012,3.59 2.049,3.763 2.136,4.173 2.213,4.585 2.285,5 2.295,5.058 2.306,5.115 2.316,5.173 2.391,5.621 2.457,6.073 2.514,6.526 2.516,6.538 2.517,6.549 2.518,6.56 2.392,5.082 1.827,3.379 0.892,1.578 0.995,2.617 1.061,3.664 1.061,4.72 Z" />
          </g>
          <g
             transform="translate(224.8789,325.5107)"
             id="g3418">
            <path
               inkscape:connector-curvature="0"
               id="path3420"
               style="fill:#1aae48;fill-opacity:1;fill-rule:nonzero;stroke:none"
               d="m 0,0 c -4.109,-1.417 -8.107,-2.287 -11.665,-2.624 0.171,4.157 0.765,8.198 1.782,11.923 1.869,0.066 3.988,0.446 6.193,1.148 L 0,0 Z m 4.586,-12.984 c -5.376,-1.856 -10.666,-2.844 -15.403,-3.064 -0.607,3.56 -0.916,7.218 -0.914,10.837 0,0.637 0.029,1.268 0.048,1.9 3.643,0.337 7.72,1.221 11.911,2.666 l 4.358,-12.339 z m 8.584,-24.305 c -4.436,-1.529 -8.874,-2.275 -13.007,-2.416 -5.488,5.266 -9.181,13.75 -10.858,22.981 4.785,0.232 10.104,1.228 15.509,3.093 l 8.356,-23.658 z m -14.447,-2.445 c -4.261,-0.004 -8.138,0.652 -11.277,1.729 -6.142,5.523 -10.241,13.901 -10.932,22.949 2.849,-1.126 6.501,-1.717 10.626,-1.723 0.484,0 0.981,0.018 1.477,0.035 1.633,-9.108 5.199,-17.539 10.593,-22.981 -0.162,-0.002 -0.327,-0.009 -0.487,-0.009 m -22.319,27.412 c 0.001,3.326 0.469,6.708 1.462,10.041 1.88,-0.799 4.349,-1.188 7.191,-1.192 0.825,0 1.692,0.044 2.577,0.11 -0.018,-0.616 -0.048,-1.229 -0.048,-1.848 0.003,-3.619 0.31,-7.283 0.911,-10.853 -0.455,-0.014 -0.913,-0.032 -1.357,-0.032 -4.223,-0.007 -7.892,0.641 -10.665,1.798 -0.036,0.657 -0.071,1.314 -0.071,1.976 m 8.359,22.777 c 1.054,-0.791 2.694,-1.164 4.641,-1.183 -1.005,-3.749 -1.587,-7.793 -1.753,-11.948 -0.893,-0.068 -1.766,-0.114 -2.594,-0.114 -2.833,-0.005 -5.218,0.405 -6.977,1.166 1.338,4.187 3.526,8.278 6.683,12.079 m -0.526,2.249 c -0.02,0.913 0.594,2.03 1.699,3.161 2.205,1.076 4.393,1.883 6.132,2.326 -2.861,-2.091 -5.313,-4.355 -7.374,-6.748 -0.151,0.186 -0.277,0.38 -0.345,0.592 -0.076,0.213 -0.112,0.436 -0.112,0.669 m 8.588,5.199 c -1.344,-2.391 -2.424,-5.069 -3.243,-7.946 -0.023,0 -0.049,-0.004 -0.072,-0.004 -1.917,-0.006 -3.414,0.379 -4.312,1.026 2.115,2.459 4.644,4.785 7.627,6.924 m 0.95,-0.279 2.308,-6.532 c -2.064,-0.654 -4.043,-1.016 -5.785,-1.099 0.845,2.91 1.952,5.612 3.339,7.986 0.093,0.166 0.038,0.374 -0.125,0.469 -0.1,0.058 -0.208,0.043 -0.306,-0.003 -0.009,0.047 -0.002,0.096 -0.03,0.137 -0.088,0.121 -0.238,0.145 -0.375,0.104 -0.001,0.011 0.002,0.021 0,0.031 -0.043,0.184 -0.227,0.301 -0.411,0.258 l 0,0.002 c -1.302,-0.299 -2.882,-0.815 -4.55,-1.502 0.77,0.548 1.645,1.078 2.61,1.565 l 0.303,0.153 -0.119,0.235 c -1.622,-0.735 -3.171,-1.596 -4.641,-2.574 -0.161,-0.141 -0.328,-0.284 -0.472,-0.427 -0.215,-0.107 -0.43,-0.218 -0.645,-0.329 l -0.002,0 c -1.179,-0.855 -2.287,-1.797 -3.341,-2.796 0.909,0.631 1.871,1.225 2.857,1.764 -0.526,-0.793 -0.824,-1.588 -0.837,-2.362 0,-0.306 0.049,-0.607 0.15,-0.895 0.124,-0.336 0.322,-0.625 0.556,-0.891 -3.201,-3.848 -5.429,-7.998 -6.801,-12.244 -1.246,0.66 -2.1,1.527 -2.457,2.581 -0.183,0.518 -0.286,1.104 -0.286,1.72 0,0.548 0.093,1.121 0.273,1.688 -0.001,10e-4 -0.002,10e-4 -0.003,10e-4 -0.335,-0.639 -0.638,-1.295 -0.931,-1.957 0.026,-0.592 0.119,-1.165 0.302,-1.682 0.469,-1.291 1.474,-2.287 2.881,-3.011 -1.034,-3.432 -1.519,-6.914 -1.518,-10.336 0,-0.558 0.035,-1.11 0.06,-1.664 -2.296,1.095 -3.878,2.573 -4.499,4.349 -0.009,-0.32 -0.038,-0.636 -0.038,-0.959 0,-0.17 0.01,-0.336 0.012,-0.505 0.946,-1.508 2.509,-2.733 4.554,-3.652 0.584,-8.735 4.267,-16.902 9.939,-22.604 -0.933,0.404 -1.767,0.851 -2.512,1.328 1.029,-0.849 2.116,-1.629 3.244,-2.35 0.203,-0.078 0.402,-0.156 0.612,-0.228 0.196,-0.174 0.396,-0.341 0.596,-0.508 1.215,-0.705 2.476,-1.342 3.784,-1.89 -0.919,0.57 -1.815,1.181 -2.671,1.859 2.902,-0.805 6.277,-1.266 9.923,-1.27 0.389,0 0.786,0.014 1.181,0.023 1.337,-1.25 2.788,-2.303 4.335,-3.163 0.462,10e-4 0.919,0.025 1.377,0.044 -1.699,0.802 -3.287,1.86 -4.75,3.155 4.006,0.197 8.268,0.952 12.532,2.422 l 1.371,-3.879 c 0.215,0.072 0.429,0.15 0.643,0.228 l -1.371,3.883 c 3.101,1.121 5.97,2.537 8.552,4.144 0.159,0.102 0.208,0.312 0.108,0.473 -0.099,0.158 -0.309,0.207 -0.47,0.107 -2.543,-1.582 -5.367,-2.976 -8.418,-4.08 L 5.458,-13.4 c 4.313,1.543 8.238,3.488 11.618,5.648 0.159,0.104 0.208,0.314 0.104,0.473 -0.101,0.159 -0.313,0.205 -0.471,0.103 C 13.373,-9.309 9.494,-11.23 5.23,-12.755 L 0.874,-0.418 C 2.288,0.089 3.658,0.634 4.963,1.217 5.135,1.293 5.212,1.496 5.135,1.668 5.058,1.841 4.855,1.918 4.683,1.841 3.396,1.266 2.043,0.727 0.646,0.227 L -3.035,10.65 c 0.05,0.017 0.098,0.028 0.148,0.045 1.116,0.391 2.171,0.84 3.146,1.33 l 0.306,0.153 -0.306,0.611 -0.305,-0.152 c -0.95,-0.476 -1.978,-0.912 -3.067,-1.295 -0.051,-0.018 -0.1,-0.029 -0.15,-0.047 l -2.316,6.557 c -0.063,0.177 -0.258,0.271 -0.436,0.209 -0.179,-0.064 -0.273,-0.26 -0.21,-0.437" />
          </g>
          <g
             transform="translate(247.4092,302.6455)"
             id="g3422">
            <path
               inkscape:connector-curvature="0"
               id="path3424"
               style="fill:#123a71;fill-opacity:1;fill-rule:nonzero;stroke:none"
               d="m 0,0 c 0.658,1.539 0.491,2.426 -1.142,3.128 -0.92,0.395 -1.845,0.679 -1.845,0.679 0,0 0.583,1.103 1.322,3.316 0.458,1.375 -0.123,1.736 -0.532,1.932 -0.411,0.194 -0.781,0.267 -2.047,0.822 -1.257,0.551 -1.968,0.568 -1.471,1.816 0.862,2.166 1.285,2.98 1.783,4.532 0.852,2.654 -1.27,2.705 -2.36,2.908 -1.706,0.32 -4.96,1.173 -6.752,1.867 -1.605,0.623 -2.573,1.109 -3.313,3.496 -4.605,14.848 -13.053,17.449 -15.44,17.856 -0.18,-0.081 -0.36,-0.161 -0.537,-0.245 6.79,-2.274 9.85,-6.759 13.64,-18.994 0.738,-2.384 1.92,-3.482 3.161,-4.181 1.243,-0.702 5.363,-1.825 6.603,-2.096 1.083,-0.235 2.964,-0.441 1.748,-2.949 -0.716,-1.479 -2.596,-4.553 0.318,-5.778 1.22,-0.513 1.634,-0.701 2.044,-0.896 0.41,-0.195 0.977,-0.252 0.306,-1.535 -2.11,-4.041 -0.983,-3.722 0.749,-4.467 1.633,-0.701 1.782,-0.926 1.192,-2.186 -0.496,-1.062 -2.424,-2.537 -0.401,-5.627 1.029,-1.568 4.705,-6.36 -0.182,-10.005 0,0 0.871,0.181 2.595,1.27 4.247,2.685 1.865,6.829 0.673,8.281 C -2.592,-3.764 -0.548,-1.279 0,0" />
          </g>
          <g
             transform="translate(238.3906,300.9521)"
             id="g3426">
            <path
               inkscape:connector-curvature="0"
               id="path3428"
               style="fill:#123a71;fill-opacity:1;fill-rule:nonzero;stroke:none"
               d="m 0,0 c -0.181,0.764 -0.854,1.256 -1.612,1.254 -0.183,0 -0.375,-0.028 -0.562,-0.09 l -4.075,-1.697 c -0.659,-0.197 -1.031,-0.578 -1.083,-1.121 -9.445,-2.698 -18.974,-3.045 -25.496,-0.919 0.405,1.473 0.11,3.689 -0.92,5.969 -1.072,2.374 -2.681,4.204 -4.197,4.776 -0.622,0.234 -1.185,0.242 -1.673,0.021 l 0.002,-0.005 -3.419,-1.573 c -0.367,-0.24 -0.656,-0.613 -0.85,-1.127 -0.573,-1.517 -0.262,-3.933 0.81,-6.306 1.513,-3.35 3.968,-5.42 5.687,-4.858 l 0.008,-0.016 3.352,1.514 c 0.171,0.076 0.32,0.185 0.459,0.309 6.454,-2.135 16.231,-1.959 26.507,1.042 0.189,-0.275 0.462,-0.426 0.794,-0.426 0.01,0 0.019,0.001 0.029,0.001 0.242,0 0.509,0.057 0.805,0.148 l 4.08,0.848 c 0.842,0.266 1.399,1.039 1.401,1.855 C 0.047,-0.268 0.031,-0.133 0,0" />
          </g>
          <g
             transform="translate(202.6406,302.1885)"
             id="g3430">
            <path
               inkscape:connector-curvature="0"
               id="path3432"
               style="fill:#ffffff;fill-opacity:1;fill-rule:nonzero;stroke:none"
               d="m 0,0 c -0.682,1.41 -1.912,3.074 -3.793,4.187 0.602,-0.757 2.161,-2.453 2.617,-3.462 1.468,-3.248 1.453,-6.429 0.03,-7.454 0.082,0.018 1.668,0.746 1.747,0.772 C 1.14,-4.627 1.183,-2.451 0,0" />
          </g>
          <g
             transform="translate(559.0605,310.3604)"
             id="g3434">
            <path
               inkscape:connector-curvature="0"
               id="path3436"
               style="fill:#ffffff;fill-opacity:1;fill-rule:nonzero;stroke:none"
               d="m 0,0 c 0,-4.465 3.199,-8.111 8.371,-8.111 2.383,0 4.017,0.271 5.241,0.681 l 0.885,4.602 c -1.326,-0.545 -2.416,-0.783 -3.947,-0.783 -2.587,0 -4.221,1.736 -4.221,3.851 0,3.68 2.247,5.727 5.412,5.727 1.362,0 2.688,-0.377 3.946,-0.955 l 1.329,4.26 c -1.804,0.751 -4.084,1.193 -5.581,1.193 C 4.629,10.465 0,5.828 0,0 m -9.259,10.465 c -3.201,0 -5.02,-1.33 -6.772,-3.307 l -0.067,0 0.47,2.898 -5.626,0 c -0.17,-1.601 -0.438,-3.102 -0.741,-4.636 l -2.731,-13.121 6.066,0 1.72,8.179 c 0.438,2.624 1.953,4.874 4.514,4.874 1.683,0.068 2.358,-0.989 2.358,-2.045 0,-0.92 -0.236,-1.805 -0.404,-2.694 l -1.684,-8.314 6.266,0 1.618,8.281 c 0.37,1.875 0.471,2.557 0.471,3.748 0,3.478 -1.921,6.137 -5.458,6.137 M -37.877,-4.021 c -1.281,0 -2.057,0.955 -2.057,1.773 0,1.566 2.124,2.623 5.021,2.521 0.371,0 1.112,0 1.618,-0.101 -0.439,-2.388 -1.989,-4.193 -4.582,-4.193 m 3.335,14.486 c -2.729,0 -4.649,-0.409 -6.435,-1.024 l -0.608,-4.462 c 2.022,1.056 3.505,1.396 5.695,1.396 1.99,0 3.234,-1.023 3.234,-2.285 0,-0.238 0,-0.477 -0.066,-0.715 -0.841,0.068 -2.056,0.171 -3.268,0.171 -5.358,0 -9.671,-2.148 -9.671,-6.51 0,-3.444 2.089,-5.147 5.863,-5.147 2.359,0 4.616,0.851 5.898,2.896 l 0,0.069 0.066,-0.069 -0.271,-2.486 4.954,0 c 0.674,5.349 2.223,9.338 2.223,12.133 0,4.363 -3.435,6.033 -7.614,6.033 m -19.26,0 c -2.526,0 -4.784,-1.363 -6.266,-3.613 -0.473,2.42 -2.562,3.613 -4.617,3.613 -2.46,0 -4.717,-1.363 -6.2,-3.613 l -0.068,-0.036 0.676,3.24 -5.393,0 C -75.838,8.455 -76.107,6.954 -76.41,5.42 l -2.731,-13.121 6.067,0 1.719,8.179 c 0.402,1.909 1.078,4.874 3.604,4.874 1.416,0 1.954,-0.682 1.954,-1.841 0,-0.716 -0.135,-1.669 -0.337,-2.589 l -1.752,-8.623 6.065,0 1.719,8.179 c 0.405,1.909 1.077,4.874 3.605,4.874 1.415,0 1.954,-0.682 1.954,-1.841 0,-0.716 -0.135,-1.669 -0.338,-2.589 l -1.75,-8.623 6.063,0 1.82,8.894 c 0.27,1.262 0.404,2.83 0.404,3.989 0,3.953 -2.762,5.283 -5.458,5.283 m -55.161,-14.281 c -1.994,-0.036 -3.204,1.568 -3.204,3.953 0,2.83 1.767,6.033 4.61,6.033 2.29,0 3.076,-1.738 3.076,-3.58 0,-4.022 -1.734,-6.406 -4.482,-6.406 m 1.7,14.281 c -6.671,0 -10.988,-4.227 -10.988,-10.465 0,-4.465 2.553,-8.111 8.864,-8.111 6.376,0 10.989,3.238 10.989,10.633 0,4.466 -3.075,7.943 -8.865,7.943 m -23.21,1.841 -3.95,-20.007 6.554,0 2.656,13.463 4.273,0 0.906,4.294 -4.338,0 0.226,1.055 c 0.422,1.979 1.295,2.866 2.689,2.866 0.646,0 1.262,-0.206 1.844,-0.445 l 1.101,4.193 c -1.23,0.375 -3.608,0.546 -5.066,0.546 -3.754,0 -6.151,-2.285 -6.895,-5.965 m 43.282,-5.898 -0.065,0 0.654,3.648 -6.195,0 C -92.961,8.455 -93.223,6.954 -93.516,5.42 l -2.65,-13.121 6.621,0 1.668,8.179 c 0.425,2.624 1.897,4.874 4.382,4.874 1.112,0 1.962,-0.135 2.715,-0.75 l 1.341,5.421 c -0.784,0.338 -1.701,0.442 -2.485,0.442 -2.421,0 -4.317,-1.977 -5.267,-4.057 m -55.337,0 -0.064,0 0.648,3.648 -6.134,0 c -0.162,-1.601 -0.42,-3.102 -0.712,-4.636 l -2.622,-13.121 6.554,0 1.653,8.179 c 0.42,2.624 1.875,4.874 4.336,4.874 1.101,0 1.942,-0.135 2.688,-0.75 l 1.327,5.421 c -0.777,0.338 -1.683,0.442 -2.46,0.442 -2.397,0 -4.274,-1.977 -5.214,-4.057 M -244.509,2.863 c 0.439,1.705 1.854,3.512 4.482,3.512 2.223,0 2.964,-1.602 2.964,-3.512 l -7.446,0 z m 4.414,7.602 c -7.817,0 -10.512,-6.34 -10.512,-10.465 0,-4.465 3.167,-8.111 9.03,-8.111 1.752,0 4.009,0.341 6.132,0.988 l 0.775,4.33 c -1.684,-0.818 -3.875,-1.228 -5.492,-1.228 -3.706,0 -4.65,1.5 -4.718,3.408 l 12.434,0 c 0.236,1.056 0.437,2.626 0.437,3.342 0,5.384 -3.47,7.736 -8.086,7.736 m 28.76,-7.602 c 0.437,1.705 1.854,3.512 4.481,3.512 2.225,0 2.965,-1.602 2.965,-3.512 l -7.446,0 z m 4.414,7.602 c -7.817,0 -10.513,-6.34 -10.513,-10.465 0,-4.465 3.167,-8.111 9.03,-8.111 1.752,0 4.009,0.341 6.132,0.988 l 0.776,4.33 c -1.685,-0.818 -3.875,-1.228 -5.492,-1.228 -3.706,0 -4.651,1.5 -4.718,3.408 l 12.434,0 c 0.235,1.056 0.437,2.626 0.437,3.342 0,5.384 -3.47,7.736 -8.086,7.736 M 24.92,2.863 c 0.438,1.705 1.853,3.512 4.48,3.512 2.224,0 2.965,-1.602 2.965,-3.512 l -7.445,0 z m 12.5,-0.134 c 0,5.384 -3.471,7.736 -8.086,7.736 C 21.516,10.465 18.82,4.125 18.82,0 c 0,-4.465 3.167,-8.111 9.032,-8.111 1.752,0 4.009,0.341 6.13,0.988 l 0.776,4.33 c -1.685,-0.818 -3.875,-1.228 -5.492,-1.228 -3.706,0 -4.65,1.5 -4.717,3.408 l 12.432,0 c 0.238,1.056 0.439,2.626 0.439,3.342 m -203.275,0.134 c 0.438,1.705 1.854,3.512 4.481,3.512 2.226,0 2.965,-1.602 2.965,-3.512 l -7.446,0 z m 4.415,7.602 c -7.819,0 -10.514,-6.34 -10.514,-10.465 0,-4.465 3.169,-8.111 9.031,-8.111 1.752,0 4.01,0.341 6.133,0.988 l 0.773,4.33 c -1.684,-0.818 -3.875,-1.228 -5.491,-1.228 -3.707,0 -4.649,1.5 -4.717,3.408 l 12.432,0 c 0.237,1.056 0.439,2.626 0.439,3.342 0,5.384 -3.471,7.736 -8.086,7.736 m -24.32,-13.873 c -1.942,0 -2.784,1.806 -2.784,3.613 0,2.352 1.651,5.557 4.404,5.557 1.845,0 2.785,-1.465 2.785,-3.649 0,-2.759 -1.652,-5.521 -4.405,-5.521 m 4.145,13.873 c -2.103,0 -4.274,-0.953 -6.054,-3.238 l -0.066,0 0.454,2.829 -6.07,0 c -0.064,-0.716 -0.128,-1.601 -0.356,-2.66 l -5.034,-23.267 6.619,0 2.476,11.135 c 1.232,-2.217 2.882,-3.375 5.44,-3.375 6.087,0 8.871,5.418 8.871,11.248 0,3.988 -2.137,7.328 -6.28,7.328 m -48.219,-18.166 6.619,0 5.052,25.562 -6.619,0 -5.052,-25.562 z m -15.327,28.453 -22.885,0 -1.319,-6.597 7.427,0 -4.374,-21.856 8.032,0 4.373,21.856 7.426,0 1.32,6.597 z" />
          </g>
          <g
             transform="translate(296.4937,282.5137)"
             id="g3438">
            <path
               inkscape:connector-curvature="0"
               id="path3440"
               style="fill:#123a71;fill-opacity:1;fill-rule:nonzero;stroke:none"
               d="m 0,0 -2.454,0 0,-9.435 -1.379,0 0,9.435 -2.608,0 0,1.306 6.595,0 L 0,0 Z" />
          </g>
          <g
             transform="translate(302.6006,279.7666)"
             id="g3442">
            <path
               inkscape:connector-curvature="0"
               id="path3444"
               style="fill:#123a71;fill-opacity:1;fill-rule:nonzero;stroke:none"
               d="m 0,0 c -0.311,0.096 -0.647,0.151 -1,0.151 -0.537,0 -0.981,-0.3 -1.272,-0.64 l 0,-6.199 -1.381,0 0,8.133 1.059,0 0.198,-1.073 c 0.277,0.598 0.815,1.227 1.718,1.227 0.187,0 0.461,-0.047 0.678,-0.094 L 0,0 Z" />
          </g>
          <g
             transform="translate(309.4238,277.2354)"
             id="g3446">
            <path
               inkscape:connector-curvature="0"
               id="path3448"
               style="fill:#123a71;fill-opacity:1;fill-rule:nonzero;stroke:none"
               d="m 0,0 -0.997,-0.013 c -1.256,-0.012 -2.07,-0.294 -2.07,-1.627 0,-1.366 0.614,-1.55 1.303,-1.55 0.615,0 1.274,0.386 1.764,0.857 L 0,0 Z M 0.2,-4.156 0.046,-3.207 C -0.321,-3.725 -1.059,-4.31 -2.07,-4.31 c -0.997,0 -2.38,0.355 -2.38,2.547 0,2.228 1.736,2.608 3.116,2.608 l 1.334,0 0,0.889 c 0,1.122 -0.598,1.227 -1.535,1.227 -0.736,0 -1.916,-0.319 -2.222,-0.413 l 0,1.166 c 0.706,0.231 1.594,0.416 2.439,0.416 1.471,0 2.7,-0.401 2.7,-2.642 l 0,-5.644 -1.182,0 z" />
          </g>
          <g
             transform="translate(320.3916,273.0791)"
             id="g3450">
            <path
               inkscape:connector-curvature="0"
               id="path3452"
               style="fill:#123a71;fill-opacity:1;fill-rule:nonzero;stroke:none"
               d="m 0,0 0,5.924 c 0,1.089 -0.692,1.119 -1.305,1.119 -0.689,0 -1.488,-0.308 -2.225,-0.814 l 0,-6.229 -1.38,0 0,8.133 1.028,0 0.307,-0.998 c 0.384,0.352 1.441,1.151 2.622,1.151 1.349,0 2.333,-0.554 2.333,-2.426 L 1.38,0 0,0 Z" />
          </g>
          <g
             transform="translate(327.5991,272.9258)"
             id="g3454">
            <path
               inkscape:connector-curvature="0"
               id="path3456"
               style="fill:#123a71;fill-opacity:1;fill-rule:nonzero;stroke:none"
               d="m 0,0 c -0.644,0 -1.398,0.185 -1.796,0.323 l 0,1.229 C -1.318,1.396 -0.491,1.182 0,1.182 c 0.796,0 1.58,0.182 1.58,1.196 0,0.876 -0.46,1.043 -1.104,1.305 l -0.798,0.32 c -0.553,0.231 -1.596,0.739 -1.596,2.164 0,1.458 1.075,2.272 2.669,2.272 0.784,0 1.396,-0.153 1.842,-0.322 l 0,-1.15 C 2.162,7.104 1.441,7.288 0.796,7.288 c -0.765,0 -1.41,-0.213 -1.41,-1.042 0,-0.798 0.491,-0.98 0.919,-1.152 L 1.182,4.742 C 2.041,4.403 2.899,3.867 2.899,2.378 2.899,0.367 1.427,0 0,0" />
          </g>
          <g
             transform="translate(338.626,282.8691)"
             id="g3458">
            <path
               inkscape:connector-curvature="0"
               id="path3460"
               style="fill:#123a71;fill-opacity:1;fill-rule:nonzero;stroke:none"
               d="m 0,0 c -0.537,0.183 -1.057,0.273 -1.503,0.273 -0.721,0 -1.104,-0.351 -1.104,-1.103 l 0,-0.827 1.84,0 -0.152,-1.058 -1.688,0 0,-7.075 -1.38,0 0,7.075 -1.381,0 0,1.058 1.381,0 0,0.751 c 0,1.715 1.058,2.314 2.437,2.314 0.569,0 1.059,-0.121 1.55,-0.305 L 0,0 Z" />
          </g>
          <g
             transform="translate(343.6431,280.3037)"
             id="g3462">
            <path
               inkscape:connector-curvature="0"
               id="path3464"
               style="fill:#123a71;fill-opacity:1;fill-rule:nonzero;stroke:none"
               d="m 0,0 c -0.847,0 -1.951,-0.212 -1.951,-3.158 0,-2.928 1.259,-3.145 1.951,-3.145 0.69,0 1.947,0.261 1.947,3.145 C 1.947,-0.165 0.843,0 0,0 m 0,-7.378 c -1.46,0 -3.331,0.491 -3.331,4.22 0,3.65 1.887,4.22 3.331,4.22 1.441,0 3.328,-0.476 3.328,-4.22 0,-3.79 -1.872,-4.22 -3.328,-4.22" />
          </g>
          <g
             transform="translate(354.6841,279.7666)"
             id="g3466">
            <path
               inkscape:connector-curvature="0"
               id="path3468"
               style="fill:#123a71;fill-opacity:1;fill-rule:nonzero;stroke:none"
               d="m 0,0 c -0.307,0.096 -0.643,0.151 -0.997,0.151 -0.537,0 -0.981,-0.3 -1.273,-0.64 l 0,-6.199 -1.379,0 0,8.133 1.059,0 0.197,-1.073 c 0.277,0.598 0.814,1.227 1.718,1.227 0.184,0 0.462,-0.047 0.675,-0.094 L 0,0 Z" />
          </g>
          <g
             transform="translate(366.9561,273.0791)"
             id="g3470">
            <path
               inkscape:connector-curvature="0"
               id="path3472"
               style="fill:#123a71;fill-opacity:1;fill-rule:nonzero;stroke:none"
               d="m 0,0 0,5.924 c 0,0.98 -0.459,1.119 -1.074,1.119 -0.629,0 -1.458,-0.418 -1.994,-0.8 l 0,-6.243 -1.379,0 0,5.924 c 0,0.98 -0.462,1.119 -1.076,1.119 -0.721,0 -1.504,-0.418 -1.995,-0.8 l 0,-6.243 -1.38,0 0,8.133 1.028,0 0.306,-0.982 c 0.476,0.459 1.427,1.135 2.394,1.135 0.951,0 1.795,-0.416 1.95,-1.211 0.397,0.397 1.379,1.211 2.499,1.211 1.29,0 2.102,-0.554 2.102,-2.426 L 1.381,0 0,0 Z" />
          </g>
          <path
             inkscape:connector-curvature="0"
             id="path3474"
             style="fill:#123a71;fill-opacity:1;fill-rule:nonzero;stroke:none"
             d="m 373.014,281.212 1.379,0 0,-8.133 -1.379,0 0,8.133 z m 0.69,1.226 c -0.506,0 -0.907,0.416 -0.907,0.92 0,0.505 0.401,0.919 0.907,0.919 0.505,0 0.903,-0.414 0.903,-0.919 0,-0.504 -0.398,-0.92 -0.903,-0.92" />
          <g
             transform="translate(383.9805,273.0791)"
             id="g3476">
            <path
               inkscape:connector-curvature="0"
               id="path3478"
               style="fill:#123a71;fill-opacity:1;fill-rule:nonzero;stroke:none"
               d="m 0,0 0,5.924 c 0,1.089 -0.69,1.119 -1.305,1.119 -0.688,0 -1.488,-0.308 -2.225,-0.814 l 0,-6.229 -1.38,0 0,8.133 1.028,0 0.308,-0.998 c 0.383,0.352 1.443,1.151 2.62,1.151 1.352,0 2.333,-0.554 2.333,-2.426 L 1.379,0 0,0 Z" />
          </g>
          <g
             transform="translate(392.3994,280.4102)"
             id="g3480">
            <path
               inkscape:connector-curvature="0"
               id="path3482"
               style="fill:#123a71;fill-opacity:1;fill-rule:nonzero;stroke:none"
               d="m 0,0 c -1.104,0 -1.521,-0.596 -1.521,-1.775 0,-1.074 0.51,-1.796 1.521,-1.796 1.059,0 1.521,0.722 1.521,1.796 C 1.521,-0.688 1.013,0 0,0 m 0.966,-6.945 -2.085,0.121 c -0.124,0 -0.246,0.014 -0.353,0.03 -0.231,-0.336 -0.415,-0.675 -0.415,-1.135 0,-0.874 0.508,-1.504 1.703,-1.504 1.764,0 2.393,0.556 2.393,1.522 0,0.764 -0.336,0.918 -1.243,0.966 m 1.291,6.7 c 0.337,-0.443 0.581,-0.874 0.581,-1.53 0,-1.809 -1.105,-2.746 -2.838,-2.746 -0.445,0 -0.843,0.074 -1.211,0.211 -0.29,-0.306 -0.476,-0.536 -0.476,-0.781 0,-0.46 0.199,-0.538 0.921,-0.567 l 1.887,-0.094 c 1.533,-0.075 2.377,-0.534 2.377,-2.038 0,-2.012 -1.501,-2.608 -3.682,-2.608 -1.733,0 -2.944,0.645 -2.944,2.164 0,0.627 0.396,1.335 0.92,1.687 -0.444,0.261 -0.613,0.657 -0.613,1.136 0,0.597 0.489,1.088 0.934,1.488 -0.581,0.461 -0.967,1.074 -0.967,2.148 0,1.9 1.121,2.73 2.854,2.73 0.613,0 0.843,-0.153 1.488,-0.153 l 2.178,0 0,-1.047 -1.409,0 z" />
          </g>
          <g
             transform="translate(407.585,282.624)"
             id="g3484">
            <path
               inkscape:connector-curvature="0"
               id="path3486"
               style="fill:#123a71;fill-opacity:1;fill-rule:nonzero;stroke:none"
               d="m 0,0 -0.477,0 0,-5.081 C 1.9,-5.021 2.744,-4.497 2.744,-2.485 2.744,-0.095 1.748,0 0,0 m -0.477,-6.137 0,-3.408 -1.379,0 0,10.74 1.948,0 c 2.517,0 4.033,-0.645 4.033,-3.638 0,-2.804 -1.594,-3.694 -4.602,-3.694" />
          </g>
          <g
             transform="translate(418.8418,277.2354)"
             id="g3488">
            <path
               inkscape:connector-curvature="0"
               id="path3490"
               style="fill:#123a71;fill-opacity:1;fill-rule:nonzero;stroke:none"
               d="m 0,0 -0.995,-0.013 c -1.259,-0.012 -2.073,-0.294 -2.073,-1.627 0,-1.366 0.613,-1.55 1.305,-1.55 0.613,0 1.272,0.386 1.763,0.857 L 0,0 Z M 0.2,-4.156 0.048,-3.207 C -0.321,-3.725 -1.06,-4.31 -2.07,-4.31 c -0.998,0 -2.377,0.355 -2.377,2.547 0,2.228 1.731,2.608 3.113,2.608 l 1.334,0 0,0.889 c 0,1.122 -0.599,1.227 -1.533,1.227 -0.738,0 -1.919,-0.319 -2.226,-0.413 l 0,1.166 c 0.706,0.231 1.595,0.416 2.441,0.416 1.472,0 2.7,-0.401 2.7,-2.642 l 0,-5.644 -1.182,0 z" />
          </g>
          <g
             transform="translate(425.9746,272.9258)"
             id="g3492">
            <path
               inkscape:connector-curvature="0"
               id="path3494"
               style="fill:#123a71;fill-opacity:1;fill-rule:nonzero;stroke:none"
               d="m 0,0 c -0.645,0 -1.396,0.185 -1.795,0.323 l 0,1.229 C -1.319,1.396 -0.49,1.182 0,1.182 c 0.799,0 1.58,0.182 1.58,1.196 0,0.876 -0.462,1.043 -1.104,1.305 l -0.799,0.32 c -0.551,0.231 -1.595,0.739 -1.595,2.164 0,1.458 1.075,2.272 2.669,2.272 0.784,0 1.398,-0.153 1.84,-0.322 l 0,-1.15 c -0.429,0.137 -1.15,0.321 -1.792,0.321 -0.769,0 -1.412,-0.213 -1.412,-1.042 0,-0.798 0.49,-0.98 0.92,-1.152 L 1.18,4.742 C 2.038,4.403 2.897,3.867 2.897,2.378 2.897,0.367 1.425,0 0,0" />
          </g>
          <g
             transform="translate(434.0117,272.9258)"
             id="g3496">
            <path
               inkscape:connector-curvature="0"
               id="path3498"
               style="fill:#123a71;fill-opacity:1;fill-rule:nonzero;stroke:none"
               d="m 0,0 c -0.646,0 -1.396,0.185 -1.795,0.323 l 0,1.229 C -1.32,1.396 -0.492,1.182 0,1.182 c 0.797,0 1.58,0.182 1.58,1.196 0,0.876 -0.462,1.043 -1.106,1.305 l -0.798,0.32 c -0.552,0.231 -1.594,0.739 -1.594,2.164 0,1.458 1.073,2.272 2.668,2.272 0.781,0 1.395,-0.153 1.842,-0.322 l 0,-1.15 C 2.16,7.104 1.441,7.288 0.797,7.288 c -0.768,0 -1.412,-0.213 -1.412,-1.042 0,-0.798 0.491,-0.98 0.92,-1.152 L 1.179,4.742 C 2.038,4.403 2.899,3.867 2.899,2.378 2.899,0.367 1.426,0 0,0" />
          </g>
          <path
             inkscape:connector-curvature="0"
             id="path3500"
             style="fill:#123a71;fill-opacity:1;fill-rule:nonzero;stroke:none"
             d="m 440.896,281.212 1.38,0 0,-8.133 -1.38,0 0,8.133 z m 0.69,1.226 c -0.505,0 -0.905,0.416 -0.905,0.92 0,0.505 0.4,0.919 0.905,0.919 0.508,0 0.904,-0.414 0.904,-0.919 0,-0.504 -0.396,-0.92 -0.904,-0.92" />
          <g
             transform="translate(449.7471,280.3037)"
             id="g3502">
            <path
               inkscape:connector-curvature="0"
               id="path3504"
               style="fill:#123a71;fill-opacity:1;fill-rule:nonzero;stroke:none"
               d="m 0,0 c -0.843,0 -1.947,-0.212 -1.947,-3.158 0,-2.928 1.257,-3.145 1.947,-3.145 0.69,0 1.948,0.261 1.948,3.145 C 1.948,-0.165 0.843,0 0,0 m 0,-7.378 c -1.457,0 -3.33,0.491 -3.33,4.22 0,3.65 1.889,4.22 3.33,4.22 1.441,0 3.331,-0.476 3.331,-4.22 0,-3.79 -1.875,-4.22 -3.331,-4.22" />
          </g>
          <g
             transform="translate(462.0469,273.0791)"
             id="g3506">
            <path
               inkscape:connector-curvature="0"
               id="path3508"
               style="fill:#123a71;fill-opacity:1;fill-rule:nonzero;stroke:none"
               d="m 0,0 0,5.924 c 0,1.089 -0.69,1.119 -1.305,1.119 -0.688,0 -1.486,-0.308 -2.222,-0.814 l 0,-6.229 -1.381,0 0,8.133 1.028,0 0.306,-0.998 c 0.384,0.352 1.443,1.151 2.622,1.151 1.349,0 2.332,-0.554 2.332,-2.426 L 1.38,0 0,0 Z" />
          </g>
          <path
             inkscape:connector-curvature="0"
             id="path3510"
             style="fill:#123a71;fill-opacity:1;fill-rule:nonzero;stroke:none"
             d="m 474.24,281.212 1.38,0 0,-8.133 -1.38,0 0,8.133 z m 0.691,1.226 c -0.506,0 -0.907,0.416 -0.907,0.92 0,0.505 0.401,0.919 0.907,0.919 0.506,0 0.905,-0.414 0.905,-0.919 0,-0.504 -0.399,-0.92 -0.905,-0.92" />
          <g
             transform="translate(485.21,273.0791)"
             id="g3512">
            <path
               inkscape:connector-curvature="0"
               id="path3514"
               style="fill:#123a71;fill-opacity:1;fill-rule:nonzero;stroke:none"
               d="m 0,0 0,5.924 c 0,1.089 -0.693,1.119 -1.308,1.119 -0.69,0 -1.488,-0.308 -2.223,-0.814 l 0,-6.229 -1.381,0 0,8.133 1.028,0 0.307,-0.998 c 0.384,0.352 1.442,1.151 2.625,1.151 1.347,0 2.329,-0.554 2.329,-2.426 L 1.377,0 0,0 Z" />
          </g>
          <g
             transform="translate(494.8691,273.2021)"
             id="g3516">
            <path
               inkscape:connector-curvature="0"
               id="path3518"
               style="fill:#123a71;fill-opacity:1;fill-rule:nonzero;stroke:none"
               d="m 0,0 c -0.429,-0.139 -1.06,-0.276 -1.688,-0.276 -1.166,0 -1.839,0.445 -1.839,2.041 l 0,5.187 -1.381,0 0,1.058 1.381,0 0.06,1.84 1.321,0.612 0,-2.452 1.839,0 -0.153,-1.058 -1.686,0 0,-5.233 c 0,-0.719 0.246,-0.828 0.765,-0.828 0.352,0 0.86,0.125 1.381,0.274 L 0,0 Z" />
          </g>
          <g
             transform="translate(500.8848,280.3037)"
             id="g3520">
            <path
               inkscape:connector-curvature="0"
               id="path3522"
               style="fill:#123a71;fill-opacity:1;fill-rule:nonzero;stroke:none"
               d="m 0,0 c -0.849,0 -1.951,-0.212 -1.951,-3.158 0,-2.928 1.259,-3.145 1.951,-3.145 0.688,0 1.946,0.261 1.946,3.145 C 1.946,-0.165 0.842,0 0,0 m 0,-7.378 c -1.46,0 -3.331,0.491 -3.331,4.22 0,3.65 1.886,4.22 3.331,4.22 1.44,0 3.326,-0.476 3.326,-4.22 0,-3.79 -1.87,-4.22 -3.326,-4.22" />
          </g>
          <g
             transform="translate(514.4863,273.0791)"
             id="g3524">
            <path
               inkscape:connector-curvature="0"
               id="path3526"
               style="fill:#123a71;fill-opacity:1;fill-rule:nonzero;stroke:none"
               d="m 0,0 0,10.74 5.215,0 0,-1.29 -3.834,0 0,-3.008 3.527,0 0,-1.194 -3.527,0 0,-3.96 3.834,0 L 5.215,0 0,0 Z" />
          </g>
          <g
             transform="translate(527.7539,273.0791)"
             id="g3528">
            <path
               inkscape:connector-curvature="0"
               id="path3530"
               style="fill:#123a71;fill-opacity:1;fill-rule:nonzero;stroke:none"
               d="M 0,0 -1.916,3.375 -3.835,0 -5.6,0 l 2.883,4.375 -2.73,3.758 1.827,0 1.704,-2.915 1.718,2.915 1.809,0 L -1.12,4.375 1.764,0 0,0 Z" />
          </g>
          <g
             transform="translate(537.0332,273.2363)"
             id="g3532">
            <path
               inkscape:connector-curvature="0"
               id="path3534"
               style="fill:#123a71;fill-opacity:1;fill-rule:nonzero;stroke:none"
               d="m 0,0 c -0.584,-0.202 -1.137,-0.311 -1.643,-0.311 -1.291,0 -3.419,0.337 -3.419,4.175 0,3.865 2.285,4.265 3.496,4.265 0.598,0 1.043,-0.109 1.566,-0.291 L 0,6.656 c -0.475,0.168 -1.043,0.288 -1.519,0.288 -0.998,0 -2.163,-0.245 -2.163,-3.08 0,-2.592 1.09,-2.948 2.039,-2.948 0.446,0 1.089,0.138 1.643,0.325 L 0,0 Z" />
          </g>
          <g
             transform="translate(543.166,280.3213)"
             id="g3536">
            <path
               inkscape:connector-curvature="0"
               id="path3538"
               style="fill:#123a71;fill-opacity:1;fill-rule:nonzero;stroke:none"
               d="m 0,0 c -0.996,0 -1.626,-0.489 -1.687,-2.653 l 3.237,0 C 1.55,-0.352 0.829,0 0,0 m -1.701,-3.602 c 0.059,-2.58 1.27,-2.58 2.088,-2.58 0.522,0 1.3,0.166 2.098,0.398 l 0,-1.229 C 1.751,-7.258 1.001,-7.396 0.387,-7.396 c -1.598,0 -3.454,0.324 -3.454,4.22 0,3.421 1.519,4.22 3.067,4.22 1.381,0 2.916,-0.585 2.916,-3.838 0,-0.245 0,-0.521 -0.016,-0.808 l -4.601,0 z" />
          </g>
          <path
             inkscape:connector-curvature="0"
             id="path3540"
             style="fill:#123a71;fill-opacity:1;fill-rule:nonzero;stroke:none"
             d="m 550.146,284.124 1.381,0 0,-11.045 -1.381,0 0,11.045 z" />
          <path
             inkscape:connector-curvature="0"
             id="path3542"
             style="fill:#123a71;fill-opacity:1;fill-rule:nonzero;stroke:none"
             d="m 556.128,284.124 1.379,0 0,-11.045 -1.379,0 0,11.045 z" />
          <g
             transform="translate(564.7949,280.3213)"
             id="g3544">
            <path
               inkscape:connector-curvature="0"
               id="path3546"
               style="fill:#123a71;fill-opacity:1;fill-rule:nonzero;stroke:none"
               d="m 0,0 c -1.001,0 -1.625,-0.489 -1.688,-2.653 l 3.24,0 C 1.552,-0.352 0.827,0 0,0 m -1.704,-3.602 c 0.061,-2.58 1.273,-2.58 2.086,-2.58 0.523,0 1.304,0.166 2.103,0.398 l 0,-1.229 C 1.746,-7.258 0.996,-7.396 0.382,-7.396 c -1.595,0 -3.453,0.324 -3.453,4.22 0,3.421 1.521,4.22 3.071,4.22 1.381,0 2.914,-0.585 2.914,-3.838 0,-0.245 0,-0.521 -0.013,-0.808 l -4.605,0 z" />
          </g>
          <g
             transform="translate(576.7568,273.0791)"
             id="g3548">
            <path
               inkscape:connector-curvature="0"
               id="path3550"
               style="fill:#123a71;fill-opacity:1;fill-rule:nonzero;stroke:none"
               d="m 0,0 0,5.924 c 0,1.089 -0.688,1.119 -1.302,1.119 -0.691,0 -1.488,-0.308 -2.223,-0.814 l 0,-6.229 -1.383,0 0,8.133 1.03,0 0.305,-0.998 c 0.384,0.352 1.44,1.151 2.623,1.151 1.351,0 2.333,-0.554 2.333,-2.426 L 1.383,0 0,0 Z" />
          </g>
          <g
             transform="translate(587.418,273.2363)"
             id="g3552">
            <path
               inkscape:connector-curvature="0"
               id="path3554"
               style="fill:#123a71;fill-opacity:1;fill-rule:nonzero;stroke:none"
               d="m 0,0 c -0.586,-0.202 -1.137,-0.311 -1.641,-0.311 -1.29,0 -3.424,0.337 -3.424,4.175 0,3.865 2.287,4.265 3.498,4.265 0.601,0 1.044,-0.109 1.567,-0.291 L 0,6.656 c -0.477,0.168 -1.043,0.288 -1.518,0.288 -0.998,0 -2.164,-0.245 -2.164,-3.08 0,-2.592 1.088,-2.948 2.041,-2.948 0.445,0 1.089,0.138 1.641,0.325 L 0,0 Z" />
          </g>
          <g
             transform="translate(593.5518,280.3213)"
             id="g3556">
            <path
               inkscape:connector-curvature="0"
               id="path3558"
               style="fill:#123a71;fill-opacity:1;fill-rule:nonzero;stroke:none"
               d="m 0,0 c -0.998,0 -1.623,-0.489 -1.686,-2.653 l 3.236,0 C 1.55,-0.352 0.831,0 0,0 m -1.701,-3.602 c 0.059,-2.58 1.271,-2.58 2.083,-2.58 0.523,0 1.305,0.166 2.104,0.398 l 0,-1.229 C 1.748,-7.258 0.997,-7.396 0.382,-7.396 c -1.593,0 -3.448,0.324 -3.448,4.22 0,3.421 1.515,4.22 3.066,4.22 1.382,0 2.915,-0.585 2.915,-3.838 0,-0.245 0,-0.521 -0.017,-0.808 l -4.599,0 z" />
          </g>
        </g>
      </g>
    </g>
  </g>
</svg>
